…
the two variables has been transformed to categorical datatype.

\#\#\#3.2a Identifying the numeric class in the data and evaluating if
there are any outliers

``` r
#
#Checking the data types of the columns
#
data.num<- customers_df %>% select_if(is.numeric)
data.num
```

    ## # A tibble: 440 x 6
    ##    Fresh  Milk Grocery Frozen Detergents_Paper Delicassen
    ##    <dbl> <dbl>   <dbl>  <dbl>            <dbl>      <dbl>
    ##  1 12669  9656    7561    214             2674       1338
    ##  2  7057  9810    9568   1762             3293       1776
    ##  3  6353  8808    7684   2405             3516       7844
    ##  4 13265  1196    4221   6404              507       1788
    ##  5 22615  5410    7198   3915             1777       5185
    ##  6  9413  8259    5126    666             1795       1451
    ##  7 12126  3199    6975    480             3140        545
    ##  8  7579  4956    9426   1669             3321       2566
    ##  9  5963  3648    6192    425             1716        750
    ## 10  6006 11093   18881   1159             7425       2098
    ## # ... with 430 more rows
…
### 2. univariate Analysis for categorical Data

``` r
## Identifying the categorical class in the data 
#
df_cat<- customers_df %>% select_if(is.factor)
df_cat
```

    ## # A tibble: 440 x 2
    ##    Channel    Region      
    ##    <fct>      <fct>       
    ##  1 retail     Other region
    ##  2 retail     Other region
    ##  3 retail     Other region
    ##  4 restaurant Other region
    ##  5 retail     Other region
    ##  6 retail     Other region
    ##  7 retail     Other region
    ##  8 retail     Other region
    ##  9 restaurant Other region
    ## 10 retail     Other region
    ## # ... with 430 more rows
…
### Dropping variable with high correlation.

``` r
# We can remove the variables with a higher correlation 
# and comparing the results graphically as shown below
# 
# Removing Redundant Features 
# ---
# 
new_num<-feature_num[-high_cor]
new_num
```

    ## # A tibble: 440 x 5
    ##    Fresh  Milk Frozen Detergents_Paper Delicassen
    ##    <dbl> <dbl>  <dbl>            <dbl>      <dbl>
    ##  1 12669  9656    214             2674       1338
    ##  2  7057  9810   1762             3293       1776
    ##  3  6353  8808   2405             3516       7844
    ##  4 13265  1196   6404              507       1788
    ##  5 22615  5410   3915             1777       5185
    ##  6  9413  8259    666             1795       1451
    ##  7 12126  3199    480             3140        545
    ##  8  7579  4956   1669             3321       2566
    ##  9  5963  3648    425             1716        750
    ## 10  6006 11093   1159             7425       2098
    ## # ... with 430 more rows
…
